<svg width="28" height="28" viewBox="0 0 28 28" fill="none" xmlns="http://www.w3.org/2000/svg">
<rect width="28" height="28" rx="14" fill="black"/>
<path fill-rule="evenodd" clip-rule="evenodd" d="M15.7301 8.29297C15.3349 8.7849 14.6712 9.15386 14.1417 9.15386C14.082 9.15386 14.0224 9.14617 13.9851 9.13848C13.9776 9.10774 13.9627 9.0155 13.9627 8.92326C13.9627 8.29297 14.2685 7.67804 14.604 7.28603C15.0291 6.77103 15.7376 6.38671 16.3267 6.36365C16.3416 6.43283 16.3491 6.51738 16.3491 6.60193C16.3491 7.22454 16.0881 7.84715 15.7301 8.29297ZM13.1367 18.2255C12.8709 18.3431 12.619 18.4546 12.2773 18.4546C11.5465 18.4546 11.0394 17.7628 10.4577 16.9173C9.77911 15.918 9.22726 14.3731 9.22726 12.9126C9.22726 10.5605 10.7113 9.31532 12.1729 9.31532C12.5995 9.31532 12.9894 9.47655 13.336 9.61992C13.6134 9.73468 13.8632 9.838 14.082 9.838C14.2718 9.838 14.5084 9.74165 14.7841 9.62936C15.1691 9.47252 15.6306 9.28457 16.1477 9.28457C16.4758 9.28457 17.6765 9.31532 18.467 10.4837C18.4624 10.4873 18.4528 10.4939 18.4387 10.5035C18.2442 10.6358 17.2067 11.3418 17.2067 12.7896C17.2067 14.5806 18.7205 15.2186 18.7727 15.2339C18.7714 15.2374 18.7683 15.2472 18.7634 15.2629C18.7136 15.4217 18.4764 16.1785 17.9673 16.948C17.4677 17.6859 16.9382 18.4392 16.1477 18.4392C15.7581 18.4392 15.5099 18.3259 15.2535 18.2089C14.98 18.084 14.6973 17.955 14.2237 17.955C13.7476 17.955 13.4335 18.0941 13.1367 18.2255Z" fill="white"/>
</svg>
