<svg width="16" height="16" viewBox="0 0 16 16" fill="none" xmlns="http://www.w3.org/2000/svg">
<path opacity="0.54" fill-rule="evenodd" clip-rule="evenodd" d="M8.00057 9.616L1.61612 16L0 14.384L6.38331 8L0 1.616L1.61612 0L8.00057 6.384L14.385 0L16 1.616L9.61669 8L16 14.384L14.385 16L8.00057 9.616Z" fill="#727A87"/>
</svg>
